"","ACC","SYNONYM_OF","TRIBE","GENUS","SPECIES","SUBSP_VAR","BAUTH","AUTH","AUTHFULL","AUTHSOURCE","SOURCE","AY","BASION","DESIG_TYPE","DESIGNATED_BY","DESIGNATION_SOURCE","CHANGES","FULL_NAME"
"298","N",,"Alysseae","Alyssum","campestre","var. subumbellatum",,"Rech.f.","Rechinger, K.H.",,"Denkschr. Akad. Wiss. Wien, Math.-Naturwiss. Kl. 105: 77. (1943).","y",,,,,,"Alyssum campestre var. subumbellatum"
"3833","N",,"Cardamineae","Cardamine","ramosissima",,,"Steud.","Steudel, E.G. von",,"Flora (Regensburg) 39: 409. (1856).","y",,,,,,"Cardamine ramosissima "
"5013","N",,"Descurainieae","Descurainia","menziesii",,"(DC.)","O.E.Schulz","Schulz, O.E.","Engler, H.G.A.","Pflanzenreich IV-105 (Heft 86): 328. (1924).","y","Cardamine menziesii",,,,,"Descurainia menziesii "
"6025","N",,"Arabideae","Draba","oblongata",,,"R.Br. ex DC.","Brown, R. ex Candolle, A.P. de",,"Reg. Veg. Syst. Nat. 2: 342. (1821).","y",,,,,,"Draba oblongata "
"7204","N",,"Erysimeae","Erysimum","pygmaeum",,"(Adams)","J.Gay","Gay, J.É.",,"Erysim. Nov.: 4. (1842).","y","Cheiranthus pygmaeus",,,,,"Erysimum pygmaeum "
"7244","N",,"Erysimeae","Erysimum","sikkimense",,,"Polatschek","Polatschek, A.",,"Phyton (Horn, Austria) 34: 201. (1994)","y",,,,,,"Erysimum sikkimense "
"7265","N",,"Erysimeae","Erysimum","suecicum",,,"Jord.","Jordan, C.T.A.",,"Diagn. Esp. Nouv.: 152. (1864).","y",,,,,,"Erysimum suecicum "
"7274","N",,"Erysimeae","Erysimum","syrticolum",,,"E.Sheld.","Sheldon, E.P.",,"Bull. Torrey Bot. Club 20: 285. (1893).","y",,,,,,"Erysimum syrticolum "
"7500","N",,"Alysseae","Farsetia","lunarioides",,"(Willd.)","W.T.Aiton","Aiton, W.T.",,"Hortus Kew., ed. 2, 4: 96. (1812).","y","Alyssum lunarioides",,,,,"Farsetia lunarioides "
"9084","N",,"Lepidieae","Lepidium","amissum",,,"de Lange & Heenan","de Lange, P.J. & Heenan, P.B.",,"Phytokeys 24: 29. (2013).","y",,,,,,"Lepidium amissum "
"9282","N",,"Lepidieae","Lepidium","fruticulosum",,,"Desv.","Desvaux, N.A.",,"J. Bot. Agric. 3: 165, 180. (1815).","y",,,,,,"Lepidium fruticulosum "
"13538","N",,"Euclidieae","Solms-laubachia","eurycarpa",,"(Maxim.)","Botsch.","Botschantzev, V.P.",,"Bot. Mater. Gerb. Bot. Inst. Komarova Akad. Nauk SSSR 17: 169. (1955).","y","Parrya eurycarpa",,,,,"Solms-laubachia eurycarpa "
"13800","N",,"Thelypodieae","Streptanthella","longirostris",,"(S.Watson)","Rydb.","Rydberg, P.A.",,"Fl. Rocky Mtns.: 364. (1917).","y","Arabis longirostris",,,,,"Streptanthella longirostris "
"14954","N",,"Yinshanieae","Yinshania","yixianensis",,"(Y.H.Zhang)","Al-Shehbaz, G.Yang, L.L.Lu & T.Y.Cheo","Al-Shehbaz, I.A., Yang, G., Lu, L.L. & Cheo, T.Y.",,"Harvard Pap. Bot. 3: 84. (1998).","y","Hilliella yixianensis",,,,,"Yinshania yixianensis "
